%YAML 1.1
%TAG !u! tag:unity3d.com,2011:
--- !u!21 &2100000
Material:
  serializedVersion: 8
  m_ObjectHideFlags: 0
  m_CorrespondingSourceObject: {fileID: 0}
  m_PrefabInstance: {fileID: 0}
  m_PrefabAsset: {fileID: 0}
  m_Name: PlaceholderMaterial
  m_Shader: {fileID: 4800000, guid: 211e2669d606b4bc28409155a2e34ac0, type: 3}
  m_ValidKeywords: []
  m_InvalidKeywords:
  - _EMISSION
  - _GLOSSYREFLECTIONS_OFF
  - _SPECULARHIGHLIGHTS_OFF
  m_LightmapFlags: 4
  m_EnableInstancingVariants: 0
  m_DoubleSidedGI: 0
  m_CustomRenderQueue: -1
  stringTagMap: {}
  disabledShaderPasses: []
  m_SavedProperties:
    serializedVersion: 3
    m_TexEnvs:
    - _MainTex:
        m_Texture: {fileID: 0}
        m_Scale: {x: 1, y: 1}
        m_Offset: {x: 0, y: 0}
    - _NoiseTex:
        m_Texture: {fileID: 0}
        m_Scale: {x: 1, y: 1}
        m_Offset: {x: 0, y: 0}
    - _RampTex:
        m_Texture: {fileID: 2800000, guid: cbad1fa4bd3945a7a4b6b50b9c61f2d9, type: 3}
        m_Scale: {x: 1, y: 1}
        m_Offset: {x: 0, y: 0}
    m_Ints: []
    m_Floats:
    - _Metallic: 0.1
    - _NoiseForce: 10
    - _RadiusMultiplier: 1
    - _RampTexCoordX: 0
    - _RampTexCoordY: 0
    - _Smoothness: 0.1
    m_Colors:
    - _ColorFrom: {r: 1, g: 0, b: 1, a: 1}
    - _ColorTo: {r: 1, g: 1, b: 0, a: 1}
    - _Diffuse: {r: 1, g: 1, b: 1, a: 1}
    - _GradientPivot: {r: 0, g: 0, b: 0, a: 0}
    - _NoiseScale: {r: 10, g: 10, b: 0, a: 0}
  m_BuildTextureStacks: []
