%YAML 1.1
%TAG !u! tag:unity3d.com,2011:
--- !u!114 &11400000
MonoBehaviour:
  m_ObjectHideFlags: 0
  m_PrefabParentObject: {fileID: 0}
  m_PrefabInternal: {fileID: 0}
  m_GameObject: {fileID: 0}
  m_Enabled: 1
  m_EditorHideFlags: 0
  m_Script: {fileID: 11500000, guid: 06e34a007bcd916b3ad2d0dd5d6ead9a, type: 3}
  m_Name: "default"
  m_EditorClassIdentifier: 
  _lastTimeModified: 636567040443936054
  _documentAsset: {fileID: 11400000, guid: 317dbc8310a74a35b7ecc915fb2fa65e, type: 2}
  _sharedMesh: {fileID: 4300000, guid: 79810aca8366414895cb65e2f9b52c96, type: 2}
  _antialiasing: 0
  _generateCollider: 0
  _keepSVGFile: 0
  _ignoreSVGCanvas: 1
  _colliderShape: []
  _format: 2
  _useGradients: 1
  _meshCompression: 0
  _optimizeMesh: 1
  _generateNormals: 0
  _generateTangents: 0
  _scale: 0.01
  _vpm: 10
  _depthOffset: 0.01
  _compressDepth: 1
  _pivotPoint: {x: 0.5, y: 0.5}
  _customPivotPoint: 0
  _border: {x: 0, y: 0, z: 0, w: 0}
  _sliceMesh: 0
  _sharedGradients: []
  _sharedShaders:
  - "SVG Importer\x2fSolidColor\x2fSolidColorAlphaBlended"
  _canvasRectangle:
    x: 0
    y: 0
    width: 9.599999
    height: 9.599999
  _useLayers: 0
  _layers: []
