[
  {
    "title": "None",
    "icon": "effect_no",
    "shaderModel": "none"
  },
  {
    "title": "ArtPaper",
    "icon": "effect_paper",
    "shaderModel": "muladd"
  },
  {
    "title": "WaterPaper",
    "icon": "effect_artpaper",
    "shaderModel": "linearLight"
  },
  {
    "title": "Leather",
    "icon": "effect_leather",
    "shaderModel": "linearLight"
  },
  {
    "title": "Grain",
    "icon": "effect_grain",
    "shaderModel": "overlay"
  },
  {
    "title": "Brick",
    "icon": "effect_brick",
    "shaderModel": "wall-bricks"
  },
  {
    "title": "None",
    "icon": "effect_no",
    "shaderModel": "none"
  },
  {
    "title": "ArtPaper",
    "icon": "effect_paper",
    "shaderModel": "muladd"
  },
  {
    "title": "WaterPaper",
    "icon": "effect_artpaper",
    "shaderModel": "linearLight"
  },
  {
    "title": "Leather",
    "icon": "effect_leather",
    "shaderModel": "linearLight"
  },
  {
    "title": "Grain",
    "icon": "effect_grain",
    "shaderModel": "overlay"
  },
  {
    "title": "Brick",
    "icon": "effect_brick",
    "shaderModel": "wall-bricks"
  },
  {
    "title": "None",
    "icon": "effect_no",
    "shaderModel": "none"
  },
  {
    "title": "ArtPaper",
    "icon": "effect_paper",
    "shaderModel": "muladd"
  },
  {
    "title": "WaterPaper",
    "icon": "effect_artpaper",
    "shaderModel": "linearLight"
  },
  {
    "title": "Leather",
    "icon": "effect_leather",
    "shaderModel": "linearLight"
  },
  {
    "title": "Grain",
    "icon": "effect_grain",
    "shaderModel": "overlay"
  },
  {
    "title": "Brick",
    "icon": "effect_brick",
    "shaderModel": "wall-bricks"
  }
]
