%YAML 1.1
%TAG !u! tag:unity3d.com,2011:
--- !u!78 &1
TagManager:
  serializedVersion: 2
  tags:
  - CateCanvas
  - ImglistCanvas
  - WorkShopCanvas
  - ShareCanvas
  - MyworkCanvas
  - canvasList
  - LoadingCanvas
  - InspirationCanvas
  - IgnoredColors
  layers:
  - Default
  - TransparentFX
  - Ignore Raycast
  - 
  - Water
  - UI
  - 
  - 
  - UIObject3D
  - test
  - 
  - 
  - 
  - 
  - 
  - 
  - 
  - 
  - 
  - 
  - 
  - 
  - 
  - 
  - 
  - 
  - 
  - 
  - 
  - 
  - 
  - 
  m_SortingLayers:
  - name: Default
    uniqueID: 0
    locked: 0
  - name: UI
    uniqueID: 123186337
    locked: 0
  - name: test
    uniqueID: 4077803333
    locked: 0
