%YAML 1.1
%TAG !u! tag:unity3d.com,2011:
--- !u!114 &11400000
MonoBehaviour:
  m_ObjectHideFlags: 0
  m_PrefabParentObject: {fileID: 0}
  m_PrefabInternal: {fileID: 0}
  m_GameObject: {fileID: 0}
  m_Enabled: 1
  m_EditorHideFlags: 0
  m_Script: {fileID: 11500000, guid: 177c2e676b2684c3a99bd8bb87b63824, type: 3}
  m_Name: svgImporterSettings
  m_EditorClassIdentifier: 
  defaultSVGFormat: 1
  defaultUseGradients: 1
  defaultAntialiasing: 1
  defaultAntialiasingWidth: 2
  defaultMeshCompression: 0
  defaultVerticesPerMeter: 1000
  defaultScale: 0.01
  defaultDepthOffset: 0.01
  defaultCompressDepth: 1
  defaultCustomPivotPoint: 0
  defaultPivotPoint: {x: 0.5, y: 0.5}
  defaultGenerateCollider: 0
  defaultKeepSVGFile: 0
  defaultUseLayers: 0
  defaultIgnoreSVGCanvas: 1
  defaultOptimizeMesh: 1
  defaultGenerateNormals: 0
  defaultGenerateTangents: 0
  defaultSVGIcon: {fileID: 0}
  ignoreImportExceptions: 1
